%YAML 1.1
%TAG !u! tag:unity3d.com,2011:
--- !u!1001 &8461845295021323149
PrefabInstance:
  m_ObjectHideFlags: 0
  serializedVersion: 2
  m_Modification:
    serializedVersion: 3
    m_TransformParent: {fileID: 0}
    m_Modifications:
    - target: {fileID: -8679921383154817045, guid: c6ee65a17262c4b4595ed6f80b6a2a65, type: 3}
      propertyPath: m_RootOrder
      value: 0
      objectReference: {fileID: 0}
    - target: {fileID: -8679921383154817045, guid: c6ee65a17262c4b4595ed6f80b6a2a65, type: 3}
      propertyPath: m_LocalScale.x
      value: 10
      objectReference: {fileID: 0}
    - target: {fileID: -8679921383154817045, guid: c6ee65a17262c4b4595ed6f80b6a2a65, type: 3}
      propertyPath: m_LocalScale.y
      value: 10
      objectReference: {fileID: 0}
    - target: {fileID: -8679921383154817045, guid: c6ee65a17262c4b4595ed6f80b6a2a65, type: 3}
      propertyPath: m_LocalScale.z
      value: 10
      objectReference: {fileID: 0}
    - target: {fileID: -8679921383154817045, guid: c6ee65a17262c4b4595ed6f80b6a2a65, type: 3}
      propertyPath: m_LocalPosition.x
      value: -0
      objectReference: {fileID: 0}
    - target: {fileID: -8679921383154817045, guid: c6ee65a17262c4b4595ed6f80b6a2a65, type: 3}
      propertyPath: m_LocalPosition.y
      value: 0
      objectReference: {fileID: 0}
    - target: {fileID: -8679921383154817045, guid: c6ee65a17262c4b4595ed6f80b6a2a65, type: 3}
      propertyPath: m_LocalPosition.z
      value: 0
      objectReference: {fileID: 0}
    - target: {fileID: -8679921383154817045, guid: c6ee65a17262c4b4595ed6f80b6a2a65, type: 3}
      propertyPath: m_LocalRotation.w
      value: 1
      objectReference: {fileID: 0}
    - target: {fileID: -8679921383154817045, guid: c6ee65a17262c4b4595ed6f80b6a2a65, type: 3}
      propertyPath: m_LocalRotation.x
      value: 0
      objectReference: {fileID: 0}
    - target: {fileID: -8679921383154817045, guid: c6ee65a17262c4b4595ed6f80b6a2a65, type: 3}
      propertyPath: m_LocalRotation.y
      value: -0
      objectReference: {fileID: 0}
    - target: {fileID: -8679921383154817045, guid: c6ee65a17262c4b4595ed6f80b6a2a65, type: 3}
      propertyPath: m_LocalRotation.z
      value: -0
      objectReference: {fileID: 0}
    - target: {fileID: -8679921383154817045, guid: c6ee65a17262c4b4595ed6f80b6a2a65, type: 3}
      propertyPath: m_LocalEulerAnglesHint.x
      value: 0
      objectReference: {fileID: 0}
    - target: {fileID: -8679921383154817045, guid: c6ee65a17262c4b4595ed6f80b6a2a65, type: 3}
      propertyPath: m_LocalEulerAnglesHint.y
      value: 0
      objectReference: {fileID: 0}
    - target: {fileID: -8679921383154817045, guid: c6ee65a17262c4b4595ed6f80b6a2a65, type: 3}
      propertyPath: m_LocalEulerAnglesHint.z
      value: 0
      objectReference: {fileID: 0}
    - target: {fileID: -7511558181221131132, guid: c6ee65a17262c4b4595ed6f80b6a2a65, type: 3}
      propertyPath: m_Materials.Array.data[0]
      value: 
      objectReference: {fileID: 2100000, guid: a88ec864e1a9c704f901b331887e870c, type: 2}
    - target: {fileID: 919132149155446097, guid: c6ee65a17262c4b4595ed6f80b6a2a65, type: 3}
      propertyPath: m_Name
      value: box_001
      objectReference: {fileID: 0}
    m_RemovedComponents: []
    m_RemovedGameObjects: []
    m_AddedGameObjects: []
    m_AddedComponents:
    - targetCorrespondingSourceObject: {fileID: 919132149155446097, guid: c6ee65a17262c4b4595ed6f80b6a2a65, type: 3}
      insertIndex: -1
      addedObject: {fileID: 7383418620685843952}
  m_SourcePrefab: {fileID: 100100000, guid: c6ee65a17262c4b4595ed6f80b6a2a65, type: 3}
--- !u!1 &8768485004339793628 stripped
GameObject:
  m_CorrespondingSourceObject: {fileID: 919132149155446097, guid: c6ee65a17262c4b4595ed6f80b6a2a65, type: 3}
  m_PrefabInstance: {fileID: 8461845295021323149}
  m_PrefabAsset: {fileID: 0}
--- !u!64 &7383418620685843952
MeshCollider:
  m_ObjectHideFlags: 0
  m_CorrespondingSourceObject: {fileID: 0}
  m_PrefabInstance: {fileID: 0}
  m_PrefabAsset: {fileID: 0}
  m_GameObject: {fileID: 8768485004339793628}
  m_Material: {fileID: 0}
  m_IncludeLayers:
    serializedVersion: 2
    m_Bits: 0
  m_ExcludeLayers:
    serializedVersion: 2
    m_Bits: 0
  m_LayerOverridePriority: 0
  m_IsTrigger: 0
  m_ProvidesContacts: 0
  m_Enabled: 1
  serializedVersion: 5
  m_Convex: 0
  m_CookingOptions: 30
  m_Mesh: {fileID: 94201145917425210, guid: c6ee65a17262c4b4595ed6f80b6a2a65, type: 3}
