%YAML 1.1
%TAG !u! tag:unity3d.com,2011:
--- !u!1001 &4289914421904218903
PrefabInstance:
  m_ObjectHideFlags: 0
  serializedVersion: 2
  m_Modification:
    serializedVersion: 3
    m_TransformParent: {fileID: 0}
    m_Modifications:
    - target: {fileID: 100000, guid: 5f5c6baac71fa0a4bb9dd9d91c1b2c53, type: 3}
      propertyPath: m_Name
      value: mesh_waterCooler
      objectReference: {fileID: 0}
    - target: {fileID: 400000, guid: 5f5c6baac71fa0a4bb9dd9d91c1b2c53, type: 3}
      propertyPath: m_LocalPosition.x
      value: 0
      objectReference: {fileID: 0}
    - target: {fileID: 400000, guid: 5f5c6baac71fa0a4bb9dd9d91c1b2c53, type: 3}
      propertyPath: m_LocalPosition.y
      value: 0
      objectReference: {fileID: 0}
    - target: {fileID: 400000, guid: 5f5c6baac71fa0a4bb9dd9d91c1b2c53, type: 3}
      propertyPath: m_LocalPosition.z
      value: 0
      objectReference: {fileID: 0}
    - target: {fileID: 400000, guid: 5f5c6baac71fa0a4bb9dd9d91c1b2c53, type: 3}
      propertyPath: m_LocalRotation.w
      value: 1
      objectReference: {fileID: 0}
    - target: {fileID: 400000, guid: 5f5c6baac71fa0a4bb9dd9d91c1b2c53, type: 3}
      propertyPath: m_LocalRotation.x
      value: 0
      objectReference: {fileID: 0}
    - target: {fileID: 400000, guid: 5f5c6baac71fa0a4bb9dd9d91c1b2c53, type: 3}
      propertyPath: m_LocalRotation.y
      value: -0
      objectReference: {fileID: 0}
    - target: {fileID: 400000, guid: 5f5c6baac71fa0a4bb9dd9d91c1b2c53, type: 3}
      propertyPath: m_LocalRotation.z
      value: -0
      objectReference: {fileID: 0}
    - target: {fileID: 400000, guid: 5f5c6baac71fa0a4bb9dd9d91c1b2c53, type: 3}
      propertyPath: m_LocalEulerAnglesHint.x
      value: 0
      objectReference: {fileID: 0}
    - target: {fileID: 400000, guid: 5f5c6baac71fa0a4bb9dd9d91c1b2c53, type: 3}
      propertyPath: m_LocalEulerAnglesHint.y
      value: 0
      objectReference: {fileID: 0}
    - target: {fileID: 400000, guid: 5f5c6baac71fa0a4bb9dd9d91c1b2c53, type: 3}
      propertyPath: m_LocalEulerAnglesHint.z
      value: 0
      objectReference: {fileID: 0}
    m_RemovedComponents: []
    m_RemovedGameObjects: []
    m_AddedGameObjects: []
    m_AddedComponents: []
  m_SourcePrefab: {fileID: 100100000, guid: 5f5c6baac71fa0a4bb9dd9d91c1b2c53, type: 3}
