%YAML 1.1
%TAG !u! tag:unity3d.com,2011:
--- !u!1001 &4135836128696412349
PrefabInstance:
  m_ObjectHideFlags: 0
  serializedVersion: 2
  m_Modification:
    serializedVersion: 3
    m_TransformParent: {fileID: 0}
    m_Modifications:
    - target: {fileID: 100000, guid: 7cf3a72069c8cd14ab65dc1fbb7f16a4, type: 3}
      propertyPath: m_Name
      value: mesh_fireHose
      objectReference: {fileID: 0}
    - target: {fileID: 400000, guid: 7cf3a72069c8cd14ab65dc1fbb7f16a4, type: 3}
      propertyPath: m_LocalScale.x
      value: 7
      objectReference: {fileID: 0}
    - target: {fileID: 400000, guid: 7cf3a72069c8cd14ab65dc1fbb7f16a4, type: 3}
      propertyPath: m_LocalScale.y
      value: 7
      objectReference: {fileID: 0}
    - target: {fileID: 400000, guid: 7cf3a72069c8cd14ab65dc1fbb7f16a4, type: 3}
      propertyPath: m_LocalScale.z
      value: 7
      objectReference: {fileID: 0}
    - target: {fileID: 400000, guid: 7cf3a72069c8cd14ab65dc1fbb7f16a4, type: 3}
      propertyPath: m_LocalPosition.x
      value: -0
      objectReference: {fileID: 0}
    - target: {fileID: 400000, guid: 7cf3a72069c8cd14ab65dc1fbb7f16a4, type: 3}
      propertyPath: m_LocalPosition.y
      value: 0
      objectReference: {fileID: 0}
    - target: {fileID: 400000, guid: 7cf3a72069c8cd14ab65dc1fbb7f16a4, type: 3}
      propertyPath: m_LocalPosition.z
      value: 0
      objectReference: {fileID: 0}
    - target: {fileID: 400000, guid: 7cf3a72069c8cd14ab65dc1fbb7f16a4, type: 3}
      propertyPath: m_LocalRotation.w
      value: 1
      objectReference: {fileID: 0}
    - target: {fileID: 400000, guid: 7cf3a72069c8cd14ab65dc1fbb7f16a4, type: 3}
      propertyPath: m_LocalRotation.x
      value: 0
      objectReference: {fileID: 0}
    - target: {fileID: 400000, guid: 7cf3a72069c8cd14ab65dc1fbb7f16a4, type: 3}
      propertyPath: m_LocalRotation.y
      value: -0
      objectReference: {fileID: 0}
    - target: {fileID: 400000, guid: 7cf3a72069c8cd14ab65dc1fbb7f16a4, type: 3}
      propertyPath: m_LocalRotation.z
      value: -0
      objectReference: {fileID: 0}
    - target: {fileID: 400000, guid: 7cf3a72069c8cd14ab65dc1fbb7f16a4, type: 3}
      propertyPath: m_LocalEulerAnglesHint.x
      value: 0
      objectReference: {fileID: 0}
    - target: {fileID: 400000, guid: 7cf3a72069c8cd14ab65dc1fbb7f16a4, type: 3}
      propertyPath: m_LocalEulerAnglesHint.y
      value: 0
      objectReference: {fileID: 0}
    - target: {fileID: 400000, guid: 7cf3a72069c8cd14ab65dc1fbb7f16a4, type: 3}
      propertyPath: m_LocalEulerAnglesHint.z
      value: 0
      objectReference: {fileID: 0}
    m_RemovedComponents: []
    m_RemovedGameObjects: []
    m_AddedGameObjects: []
    m_AddedComponents: []
  m_SourcePrefab: {fileID: 100100000, guid: 7cf3a72069c8cd14ab65dc1fbb7f16a4, type: 3}
