%YAML 1.1
%TAG !u! tag:unity3d.com,2011:
--- !u!1 &4802718331398481705
GameObject:
  m_ObjectHideFlags: 0
  m_CorrespondingSourceObject: {fileID: 0}
  m_PrefabInstance: {fileID: 0}
  m_PrefabAsset: {fileID: 0}
  serializedVersion: 6
  m_Component:
  - component: {fileID: 8705598218842008341}
  m_Layer: 0
  m_Name: LightFixture4_Parent
  m_TagString: Untagged
  m_Icon: {fileID: 0}
  m_NavMeshLayer: 0
  m_StaticEditorFlags: 2147483647
  m_IsActive: 1
--- !u!4 &8705598218842008341
Transform:
  m_ObjectHideFlags: 0
  m_CorrespondingSourceObject: {fileID: 0}
  m_PrefabInstance: {fileID: 0}
  m_PrefabAsset: {fileID: 0}
  m_GameObject: {fileID: 4802718331398481705}
  serializedVersion: 2
  m_LocalRotation: {x: 0, y: 0, z: 0, w: 1}
  m_LocalPosition: {x: 0, y: 0, z: 0}
  m_LocalScale: {x: 1, y: 1, z: 1}
  m_ConstrainProportionsScale: 0
  m_Children:
  - {fileID: 7847157569474051217}
  m_Father: {fileID: 0}
  m_LocalEulerAnglesHint: {x: 0, y: 0, z: 0}
--- !u!1001 &7740576457058540410
PrefabInstance:
  m_ObjectHideFlags: 0
  serializedVersion: 2
  m_Modification:
    serializedVersion: 3
    m_TransformParent: {fileID: 8705598218842008341}
    m_Modifications:
    - target: {fileID: -8795037307241231723, guid: 66c06219b72b9474d86b0a50738492f3, type: 3}
      propertyPath: m_CastShadows
      value: 0
      objectReference: {fileID: 0}
    - target: {fileID: -8795037307241231723, guid: 66c06219b72b9474d86b0a50738492f3, type: 3}
      propertyPath: m_Materials.Array.data[0]
      value: 
      objectReference: {fileID: 2100000, guid: cf06202faaf63304daae57b6f0a338b6, type: 2}
    - target: {fileID: -8679921383154817045, guid: 66c06219b72b9474d86b0a50738492f3, type: 3}
      propertyPath: m_LocalPosition.x
      value: 412.8
      objectReference: {fileID: 0}
    - target: {fileID: -8679921383154817045, guid: 66c06219b72b9474d86b0a50738492f3, type: 3}
      propertyPath: m_LocalPosition.y
      value: 23.34
      objectReference: {fileID: 0}
    - target: {fileID: -8679921383154817045, guid: 66c06219b72b9474d86b0a50738492f3, type: 3}
      propertyPath: m_LocalPosition.z
      value: 79.1
      objectReference: {fileID: 0}
    - target: {fileID: -8679921383154817045, guid: 66c06219b72b9474d86b0a50738492f3, type: 3}
      propertyPath: m_LocalRotation.w
      value: 1
      objectReference: {fileID: 0}
    - target: {fileID: -8679921383154817045, guid: 66c06219b72b9474d86b0a50738492f3, type: 3}
      propertyPath: m_LocalRotation.x
      value: -0
      objectReference: {fileID: 0}
    - target: {fileID: -8679921383154817045, guid: 66c06219b72b9474d86b0a50738492f3, type: 3}
      propertyPath: m_LocalRotation.y
      value: -0
      objectReference: {fileID: 0}
    - target: {fileID: -8679921383154817045, guid: 66c06219b72b9474d86b0a50738492f3, type: 3}
      propertyPath: m_LocalRotation.z
      value: -0
      objectReference: {fileID: 0}
    - target: {fileID: -8679921383154817045, guid: 66c06219b72b9474d86b0a50738492f3, type: 3}
      propertyPath: m_LocalEulerAnglesHint.x
      value: 0
      objectReference: {fileID: 0}
    - target: {fileID: -8679921383154817045, guid: 66c06219b72b9474d86b0a50738492f3, type: 3}
      propertyPath: m_LocalEulerAnglesHint.y
      value: 0
      objectReference: {fileID: 0}
    - target: {fileID: -8679921383154817045, guid: 66c06219b72b9474d86b0a50738492f3, type: 3}
      propertyPath: m_LocalEulerAnglesHint.z
      value: 0
      objectReference: {fileID: 0}
    - target: {fileID: -8532641455034203902, guid: 66c06219b72b9474d86b0a50738492f3, type: 3}
      propertyPath: m_CastShadows
      value: 0
      objectReference: {fileID: 0}
    - target: {fileID: -8532641455034203902, guid: 66c06219b72b9474d86b0a50738492f3, type: 3}
      propertyPath: m_Materials.Array.data[0]
      value: 
      objectReference: {fileID: 2100000, guid: cf06202faaf63304daae57b6f0a338b6, type: 2}
    - target: {fileID: -8074646389995880141, guid: 66c06219b72b9474d86b0a50738492f3, type: 3}
      propertyPath: m_CastShadows
      value: 0
      objectReference: {fileID: 0}
    - target: {fileID: -8074646389995880141, guid: 66c06219b72b9474d86b0a50738492f3, type: 3}
      propertyPath: m_Materials.Array.data[0]
      value: 
      objectReference: {fileID: 2100000, guid: cf06202faaf63304daae57b6f0a338b6, type: 2}
    - target: {fileID: -6668320881729271567, guid: 66c06219b72b9474d86b0a50738492f3, type: 3}
      propertyPath: m_CastShadows
      value: 0
      objectReference: {fileID: 0}
    - target: {fileID: -5620891669631283635, guid: 66c06219b72b9474d86b0a50738492f3, type: 3}
      propertyPath: m_CastShadows
      value: 0
      objectReference: {fileID: 0}
    - target: {fileID: -5534482340056820301, guid: 66c06219b72b9474d86b0a50738492f3, type: 3}
      propertyPath: m_CastShadows
      value: 0
      objectReference: {fileID: 0}
    - target: {fileID: -5534482340056820301, guid: 66c06219b72b9474d86b0a50738492f3, type: 3}
      propertyPath: m_Materials.Array.data[0]
      value: 
      objectReference: {fileID: 2100000, guid: cf06202faaf63304daae57b6f0a338b6, type: 2}
    - target: {fileID: -3192016272316669805, guid: 66c06219b72b9474d86b0a50738492f3, type: 3}
      propertyPath: m_CastShadows
      value: 0
      objectReference: {fileID: 0}
    - target: {fileID: -3192016272316669805, guid: 66c06219b72b9474d86b0a50738492f3, type: 3}
      propertyPath: m_Materials.Array.data[0]
      value: 
      objectReference: {fileID: 2100000, guid: cf06202faaf63304daae57b6f0a338b6, type: 2}
    - target: {fileID: -3048244095784808812, guid: 66c06219b72b9474d86b0a50738492f3, type: 3}
      propertyPath: m_CastShadows
      value: 0
      objectReference: {fileID: 0}
    - target: {fileID: -3048244095784808812, guid: 66c06219b72b9474d86b0a50738492f3, type: 3}
      propertyPath: m_Materials.Array.data[0]
      value: 
      objectReference: {fileID: 2100000, guid: cf06202faaf63304daae57b6f0a338b6, type: 2}
    - target: {fileID: -2975745216895665410, guid: 66c06219b72b9474d86b0a50738492f3, type: 3}
      propertyPath: m_CastShadows
      value: 0
      objectReference: {fileID: 0}
    - target: {fileID: -2688057529349993035, guid: 66c06219b72b9474d86b0a50738492f3, type: 3}
      propertyPath: m_CastShadows
      value: 0
      objectReference: {fileID: 0}
    - target: {fileID: -1277527034751459559, guid: 66c06219b72b9474d86b0a50738492f3, type: 3}
      propertyPath: m_CastShadows
      value: 0
      objectReference: {fileID: 0}
    - target: {fileID: -998945890336742138, guid: 66c06219b72b9474d86b0a50738492f3, type: 3}
      propertyPath: m_CastShadows
      value: 0
      objectReference: {fileID: 0}
    - target: {fileID: 60154631834645142, guid: 66c06219b72b9474d86b0a50738492f3, type: 3}
      propertyPath: m_CastShadows
      value: 0
      objectReference: {fileID: 0}
    - target: {fileID: 908691078079633574, guid: 66c06219b72b9474d86b0a50738492f3, type: 3}
      propertyPath: m_CastShadows
      value: 0
      objectReference: {fileID: 0}
    - target: {fileID: 908691078079633574, guid: 66c06219b72b9474d86b0a50738492f3, type: 3}
      propertyPath: m_Materials.Array.data[0]
      value: 
      objectReference: {fileID: 2100000, guid: cf06202faaf63304daae57b6f0a338b6, type: 2}
    - target: {fileID: 919132149155446097, guid: 66c06219b72b9474d86b0a50738492f3, type: 3}
      propertyPath: m_Name
      value: LightFixture4
      objectReference: {fileID: 0}
    - target: {fileID: 1912452937248531718, guid: 66c06219b72b9474d86b0a50738492f3, type: 3}
      propertyPath: m_CastShadows
      value: 0
      objectReference: {fileID: 0}
    - target: {fileID: 1922609945007514774, guid: 66c06219b72b9474d86b0a50738492f3, type: 3}
      propertyPath: m_CastShadows
      value: 0
      objectReference: {fileID: 0}
    - target: {fileID: 2849388977262834478, guid: 66c06219b72b9474d86b0a50738492f3, type: 3}
      propertyPath: m_CastShadows
      value: 0
      objectReference: {fileID: 0}
    - target: {fileID: 2849388977262834478, guid: 66c06219b72b9474d86b0a50738492f3, type: 3}
      propertyPath: m_Materials.Array.data[0]
      value: 
      objectReference: {fileID: 2100000, guid: cf06202faaf63304daae57b6f0a338b6, type: 2}
    - target: {fileID: 3157797581901240580, guid: 66c06219b72b9474d86b0a50738492f3, type: 3}
      propertyPath: m_CastShadows
      value: 0
      objectReference: {fileID: 0}
    - target: {fileID: 3445428877145843402, guid: 66c06219b72b9474d86b0a50738492f3, type: 3}
      propertyPath: m_CastShadows
      value: 0
      objectReference: {fileID: 0}
    - target: {fileID: 3706551005479065441, guid: 66c06219b72b9474d86b0a50738492f3, type: 3}
      propertyPath: m_CastShadows
      value: 0
      objectReference: {fileID: 0}
    - target: {fileID: 3739665040713798650, guid: 66c06219b72b9474d86b0a50738492f3, type: 3}
      propertyPath: m_CastShadows
      value: 0
      objectReference: {fileID: 0}
    - target: {fileID: 3987157736553094857, guid: 66c06219b72b9474d86b0a50738492f3, type: 3}
      propertyPath: m_CastShadows
      value: 0
      objectReference: {fileID: 0}
    - target: {fileID: 4089782263537599464, guid: 66c06219b72b9474d86b0a50738492f3, type: 3}
      propertyPath: m_CastShadows
      value: 0
      objectReference: {fileID: 0}
    - target: {fileID: 4207098334369196614, guid: 66c06219b72b9474d86b0a50738492f3, type: 3}
      propertyPath: m_CastShadows
      value: 0
      objectReference: {fileID: 0}
    - target: {fileID: 5262331501977426699, guid: 66c06219b72b9474d86b0a50738492f3, type: 3}
      propertyPath: m_CastShadows
      value: 0
      objectReference: {fileID: 0}
    - target: {fileID: 5341089431063452245, guid: 66c06219b72b9474d86b0a50738492f3, type: 3}
      propertyPath: m_CastShadows
      value: 0
      objectReference: {fileID: 0}
    - target: {fileID: 6405426103838670631, guid: 66c06219b72b9474d86b0a50738492f3, type: 3}
      propertyPath: m_CastShadows
      value: 0
      objectReference: {fileID: 0}
    - target: {fileID: 6988933626737310565, guid: 66c06219b72b9474d86b0a50738492f3, type: 3}
      propertyPath: m_CastShadows
      value: 0
      objectReference: {fileID: 0}
    - target: {fileID: 7459841450718075080, guid: 66c06219b72b9474d86b0a50738492f3, type: 3}
      propertyPath: m_CastShadows
      value: 0
      objectReference: {fileID: 0}
    m_RemovedComponents: []
    m_RemovedGameObjects: []
    m_AddedGameObjects: []
    m_AddedComponents: []
  m_SourcePrefab: {fileID: 100100000, guid: 66c06219b72b9474d86b0a50738492f3, type: 3}
--- !u!4 &7847157569474051217 stripped
Transform:
  m_CorrespondingSourceObject: {fileID: -8679921383154817045, guid: 66c06219b72b9474d86b0a50738492f3, type: 3}
  m_PrefabInstance: {fileID: 7740576457058540410}
  m_PrefabAsset: {fileID: 0}
